INDEX VERSION 1.131+C:\Users\fahadi\Desktop\Workspace_JFX_AI110\.metadata\.plugins\org.eclipse.jdt.core
1340754292.index
3903750301.index
1983145798.index
1789090492.index
38675814.index
115461101.index
3223033147.index
356000150.index
1973443539.index
1524487255.index
4235509034.index
2975139985.index
3965066115.index
595774291.index
1551478744.index
2432615257.index
2115700418.index
2025289538.index
3076146264.index
